EESchema Schematic File Version 4
EELAYER 30 0
EELAYER END
$Descr A4 11693 8268
encoding utf-8
Sheet 2 7
Title ""
Date ""
Rev ""
Comp ""
Comment1 ""
Comment2 ""
Comment3 ""
Comment4 ""
$EndDescr
$Comp
L Regulator_Switching:LM2575-3.3BT U?
U 1 1 5FD63CF8
P 4650 3550
F 0 "U?" H 4650 3917 50  0000 C CNN
F 1 "LM2575-3.3BT" H 4650 3826 50  0000 C CNN
F 2 "Package_TO_SOT_THT:TO-220-5_Vertical" H 4650 3300 50  0001 L CIN
F 3 "http://ww1.microchip.com/downloads/en/DeviceDoc/lm2575.pdf" H 4650 3550 50  0001 C CNN
	1    4650 3550
	1    0    0    -1  
$EndComp
$Comp
L power:GND #PWR?
U 1 1 5FD63CFE
P 4650 4200
F 0 "#PWR?" H 4650 3950 50  0001 C CNN
F 1 "GND" H 4655 4027 50  0000 C CNN
F 2 "" H 4650 4200 50  0001 C CNN
F 3 "" H 4650 4200 50  0001 C CNN
	1    4650 4200
	1    0    0    -1  
$EndComp
Wire Wire Line
	4650 3850 4650 4050
Wire Wire Line
	4150 3650 4100 3650
Wire Wire Line
	4100 3650 4100 4050
Wire Wire Line
	4100 4050 4650 4050
Connection ~ 4650 4050
Wire Wire Line
	4650 4050 4650 4200
$Comp
L Device:C C?
U 1 1 5FD63D0A
P 3750 3800
F 0 "C?" H 3865 3846 50  0000 L CNN
F 1 "220u" H 3865 3755 50  0000 L CNN
F 2 "" H 3788 3650 50  0001 C CNN
F 3 "~" H 3750 3800 50  0001 C CNN
	1    3750 3800
	1    0    0    -1  
$EndComp
Wire Wire Line
	3750 3650 3750 3450
Wire Wire Line
	3750 3450 4150 3450
$Comp
L Device:C C?
U 1 1 5FD63D12
P 3350 3800
F 0 "C?" H 3465 3846 50  0000 L CNN
F 1 "0.22" H 3465 3755 50  0000 L CNN
F 2 "" H 3388 3650 50  0001 C CNN
F 3 "~" H 3350 3800 50  0001 C CNN
	1    3350 3800
	1    0    0    -1  
$EndComp
$Comp
L Diode:B240 D?
U 1 1 5FD63D18
P 3150 3450
F 0 "D?" H 3150 3233 50  0000 C CNN
F 1 "B240" H 3150 3324 50  0000 C CNN
F 2 "Diode_SMD:D_SMB" H 3150 3275 50  0001 C CNN
F 3 "http://www.jameco.com/Jameco/Products/ProdDS/1538777.pdf" H 3150 3450 50  0001 C CNN
	1    3150 3450
	-1   0    0    1   
$EndComp
Wire Wire Line
	3300 3450 3350 3450
Connection ~ 3750 3450
Wire Wire Line
	3350 3650 3350 3450
Connection ~ 3350 3450
Wire Wire Line
	3350 3450 3750 3450
Wire Wire Line
	3750 3950 3750 4050
Wire Wire Line
	3750 4050 4100 4050
Connection ~ 4100 4050
Wire Wire Line
	3350 3950 3350 4050
Wire Wire Line
	3350 4050 3750 4050
Connection ~ 3750 4050
$Comp
L power:VCC #PWR?
U 1 1 5FD63D29
P 2950 3200
F 0 "#PWR?" H 2950 3050 50  0001 C CNN
F 1 "VCC" H 2965 3373 50  0000 C CNN
F 2 "" H 2950 3200 50  0001 C CNN
F 3 "" H 2950 3200 50  0001 C CNN
	1    2950 3200
	1    0    0    -1  
$EndComp
Wire Wire Line
	2950 3200 2950 3450
Wire Wire Line
	2950 3450 3000 3450
$Comp
L Diode:1N5819 D?
U 1 1 5FD63D31
P 5200 3850
F 0 "D?" V 5154 3930 50  0000 L CNN
F 1 "1N5819" V 5245 3930 50  0000 L CNN
F 2 "Diode_THT:D_DO-41_SOD81_P10.16mm_Horizontal" H 5200 3675 50  0001 C CNN
F 3 "http://www.vishay.com/docs/88525/1n5817.pdf" H 5200 3850 50  0001 C CNN
	1    5200 3850
	0    1    1    0   
$EndComp
Wire Wire Line
	5150 3650 5200 3650
Wire Wire Line
	5200 3650 5200 3700
Wire Wire Line
	5200 4000 5200 4050
Wire Wire Line
	5200 4050 4650 4050
$Comp
L Device:L L?
U 1 1 5FD63D3B
P 5450 3650
F 0 "L?" V 5640 3650 50  0000 C CNN
F 1 "300u" V 5549 3650 50  0000 C CNN
F 2 "" H 5450 3650 50  0001 C CNN
F 3 "~" H 5450 3650 50  0001 C CNN
	1    5450 3650
	0    -1   -1   0   
$EndComp
$Comp
L Device:L L?
U 1 1 5FD63D41
P 5950 3650
F 0 "L?" V 6140 3650 50  0000 C CNN
F 1 "300u" V 6049 3650 50  0000 C CNN
F 2 "" H 5950 3650 50  0001 C CNN
F 3 "~" H 5950 3650 50  0001 C CNN
	1    5950 3650
	0    -1   -1   0   
$EndComp
$Comp
L Device:C C?
U 1 1 5FD63D47
P 5700 3800
F 0 "C?" H 5815 3846 50  0000 L CNN
F 1 "1000u" H 5815 3755 50  0000 L CNN
F 2 "" H 5738 3650 50  0001 C CNN
F 3 "~" H 5700 3800 50  0001 C CNN
	1    5700 3800
	1    0    0    -1  
$EndComp
$Comp
L Device:R_POT RV?
U 1 1 5FD63D4D
P 5550 2750
F 0 "RV?" V 5343 2750 50  0000 C CNN
F 1 "R_POT" V 5434 2750 50  0000 C CNN
F 2 "" H 5550 2750 50  0001 C CNN
F 3 "~" H 5550 2750 50  0001 C CNN
	1    5550 2750
	0    1    1    0   
$EndComp
Wire Wire Line
	5150 3450 5200 3450
Wire Wire Line
	5200 2750 5300 2750
Wire Wire Line
	5300 2750 5300 2950
Wire Wire Line
	5300 2950 5550 2950
Wire Wire Line
	5550 2950 5550 2900
Connection ~ 5300 2750
Wire Wire Line
	5300 2750 5400 2750
$Comp
L Device:R R?
U 1 1 5FD63D5A
P 5900 2750
F 0 "R?" V 5693 2750 50  0000 C CNN
F 1 "R" V 5784 2750 50  0000 C CNN
F 2 "" V 5830 2750 50  0001 C CNN
F 3 "~" H 5900 2750 50  0001 C CNN
	1    5900 2750
	0    1    1    0   
$EndComp
Wire Wire Line
	5700 2750 5750 2750
$Comp
L Device:C C?
U 1 1 5FD63D61
P 6100 2950
F 0 "C?" H 6215 2996 50  0000 L CNN
F 1 "0.22" H 6215 2905 50  0000 L CNN
F 2 "" H 6138 2800 50  0001 C CNN
F 3 "~" H 6100 2950 50  0001 C CNN
	1    6100 2950
	1    0    0    -1  
$EndComp
Wire Wire Line
	6050 2750 6100 2750
Wire Wire Line
	6100 2750 6100 2800
Wire Wire Line
	5600 3650 5700 3650
Connection ~ 5700 3650
Wire Wire Line
	5700 3650 5800 3650
Wire Wire Line
	5300 3650 5200 3650
Connection ~ 5200 3650
Wire Wire Line
	5700 3950 5700 4050
Wire Wire Line
	5700 4050 5200 4050
Connection ~ 5200 4050
$Comp
L Connector:TestPoint TP?
U 1 1 5FD63D71
P 3350 4100
F 0 "TP?" H 3292 4126 50  0000 R CNN
F 1 "TestPoint" H 3292 4217 50  0000 R CNN
F 2 "" H 3550 4100 50  0001 C CNN
F 3 "~" H 3550 4100 50  0001 C CNN
	1    3350 4100
	-1   0    0    1   
$EndComp
Connection ~ 3350 4050
Wire Wire Line
	3350 4050 3350 4100
$Comp
L Device:R R?
U 1 1 5FD63D79
P 6400 3450
F 0 "R?" V 6500 3450 50  0000 C CNN
F 1 "R" V 6284 3450 50  0000 C CNN
F 2 "" V 6330 3450 50  0001 C CNN
F 3 "~" H 6400 3450 50  0001 C CNN
	1    6400 3450
	0    1    1    0   
$EndComp
Wire Wire Line
	5200 2750 5200 3450
$Comp
L power:GND #PWR?
U 1 1 5FD63D80
P 6100 3100
F 0 "#PWR?" H 6100 2850 50  0001 C CNN
F 1 "GND" H 6105 2927 50  0000 C CNN
F 2 "" H 6100 3100 50  0001 C CNN
F 3 "" H 6100 3100 50  0001 C CNN
	1    6100 3100
	1    0    0    -1  
$EndComp
Wire Wire Line
	6100 3650 6200 3650
$Comp
L Device:C C?
U 1 1 5FD63D87
P 6200 3850
F 0 "C?" H 6315 3896 50  0000 L CNN
F 1 "100u" H 6315 3805 50  0000 L CNN
F 2 "" H 6238 3700 50  0001 C CNN
F 3 "~" H 6200 3850 50  0001 C CNN
	1    6200 3850
	1    0    0    -1  
$EndComp
$Comp
L Device:C C?
U 1 1 5FD63D8D
P 6650 3850
F 0 "C?" H 6765 3896 50  0000 L CNN
F 1 "0.22" H 6765 3805 50  0000 L CNN
F 2 "" H 6688 3700 50  0001 C CNN
F 3 "~" H 6650 3850 50  0001 C CNN
	1    6650 3850
	1    0    0    -1  
$EndComp
$Comp
L Device:R R?
U 1 1 5FD63D93
P 6650 3050
F 0 "R?" H 6720 3096 50  0000 L CNN
F 1 "100" H 6720 3005 50  0000 L CNN
F 2 "" V 6580 3050 50  0001 C CNN
F 3 "~" H 6650 3050 50  0001 C CNN
	1    6650 3050
	1    0    0    -1  
$EndComp
Wire Wire Line
	6650 3650 6650 3700
Wire Wire Line
	6200 3700 6200 3650
Connection ~ 6200 3650
Wire Wire Line
	6200 3650 6650 3650
Wire Wire Line
	5700 4050 6200 4050
Wire Wire Line
	6650 4050 6650 4000
Connection ~ 5700 4050
Wire Wire Line
	6200 4000 6200 4050
Wire Wire Line
	6100 2750 6650 2750
Wire Wire Line
	6650 2750 6650 2900
Connection ~ 6100 2750
Wire Wire Line
	7000 2750 7000 3750
Wire Wire Line
	6200 3650 6200 3450
Wire Wire Line
	6650 3200 6650 3650
Wire Wire Line
	6200 3450 6250 3450
Connection ~ 6650 3650
Connection ~ 6650 2750
Wire Wire Line
	6650 2750 7000 2750
Wire Wire Line
	6650 4050 6200 4050
Connection ~ 6200 4050
Text Notes 7550 3800 0    50   ~ 0
Remote Sense
Text Notes 7550 3600 0    50   ~ 0
Voltage Measure
Text Notes 7550 3500 0    50   ~ 0
Current Measure
Text Notes 7550 3700 0    50   ~ 0
Power Output
Text GLabel 7250 3450 2    50   Output ~ 0
V0_Im
Text GLabel 7250 3550 2    50   Output ~ 0
V0_Vm
Text GLabel 7250 3650 2    50   Output ~ 0
V0_Vo
Text GLabel 7250 3750 2    50   Output ~ 0
V0_Rs
Wire Wire Line
	6650 3650 7150 3650
Wire Wire Line
	7000 3750 7250 3750
Wire Wire Line
	6550 3450 7250 3450
Wire Wire Line
	7250 3550 7150 3550
Wire Wire Line
	7150 3550 7150 3650
Connection ~ 7150 3650
Wire Wire Line
	7150 3650 7250 3650
$EndSCHEMATC
